<?xml version="1.0" encoding="UTF-8" standalone="no"?><svg width='20' height='20' viewBox='0 0 20 20' fill='none' xmlns='http://www.w3.org/2000/svg'>
<path d='M15 5.25016H12.4946C12.0421 5.25016 11.675 5.61683 11.675 6.06975V8.94475H15L14.5129 12.1102H11.6754V17.9168H8.01875V12.1102H5V8.94475H7.97958L8.01875 5.94058L8.01333 5.39475C8.00898 4.9615 8.09055 4.53169 8.25333 4.13017C8.41611 3.72864 8.65686 3.36337 8.96167 3.05545C9.26648 2.74754 9.62931 2.50311 10.0292 2.33628C10.429 2.16944 10.858 2.08353 11.2913 2.0835H15V5.25016Z' stroke='#AAAAAA' stroke-width='1.5' stroke-linejoin='round'/>
</svg>
